# Blender MTL File: 'gs_red_ship.blend'
# Material Count: 2

newmtl Cabin
Ns 900.000000
Ka 0.696970 0.696970 0.696970
Kd 0.068793 0.179741 0.800000
Ks 0.500000 0.500000 0.500000
Ke 0.000000 0.000000 0.000000
Ni 1.450000
d 1.000000
illum 3

newmtl Sheeting
Ns 558.677677
Ka 1.000000 1.000000 1.000000
Kd 0.800000 0.010132 0.000000
Ks 0.500000 0.500000 0.500000
Ke 0.000000 0.000000 0.000000
Ni 1.450000
d 1.000000
illum 3
